group_details
…
get_total_tkts_by(assignment_group)

# A tibble: 1 × 1
      n
  <int>
1    44

get_tkts_by <- function(...){
    df|> dplyr::filter(assignment_group == (...))|> collect()
}

get_tkts_by(assignment_group)

# A tibble: 44 × 36
   number    incident_state active reassignment_count reopen_count sys_mod_count
 * <chr>     <chr>          <lgl>               <dbl>        <dbl>         <dbl>
 1 INC00256… Closed         FALSE                   5            0            17
 2 INC00257… Closed         FALSE                   1            0             4
 3 INC00265… Closed         FALSE                   4            0             8
 4 INC00283… Closed         FALSE                   1            0             5
 5 INC00291… Closed         FALSE                   5            0            11
 6 INC00292… Closed         FALSE                   3            0            16
 7 INC00300… Closed         FALSE                   6            0            15
 8 INC00301… Closed         FALSE                   2            0             6
 9 INC00306… Closed         FALSE                   1            0            12
10 INC00310… Closed         FALSE                   1            0             3
# ℹ 34 more rows
# ℹ 30 more variables: made_sla <lgl>, caller_id <chr>, opened_by <chr>,
#   opened_at <dttm>, sys_created_by <chr>, sys_created_at <dttm>,
#   sys_updated_by <chr>, sys_updated_at <dttm>, contact_type <chr>,
#   location <chr>, category <chr>, subcategory <chr>, u_symptom <chr>,
#   cmdb_ci <chr>, impact <chr>, urgency <chr>, priority <chr>,
#   assignment_group <chr>, assigned_to <chr>, knowledge <lgl>, …
…
